regione,produzione_rifiuti_urbani_totali,popolazione_residente_media,rifiuti_urbani_smaltiti_in_discarica,percentuale_rifiuti_urbani_smaltiti_in_discarica,rifiuti_urbani_smaltiti_in_discarica_per_abitante,rifiuti_urbani_oggetto_di_raccolta_differenziata
Piemonte,2143.7,4319891,256.3,11.9540047581285,59.3,1355.7
Valle d'Aosta/Vallée d'Aoste,75.8,125343.5,29.9,39.4749340369393,238.7,48.9
Lombardia,4843.6,10019217.5,203.6,4.20247336691717,20.3,3488.6
Trentino-Alto Adige/Südtirol,546.6,1076051.5,62.6,11.4507866813026,58.2,399.7
    - Bolzano/Bozen,264.1,531478.5,3.5,1.33169254070428,6.6,180.6
    - Trento,282.5,544573,59.1,20.910796460177,108.5,219.1
Veneto,2403.3,4881861.5,346.5,14.4195065118795,71.0,1795.3
Friuli-Venezia Giulia,603.1,1208315,47.2,7.82291493947936,39.0,405.1
Liguria,821.9,1528903,303.2,36.8858741939409,198.3,439.0
Emilia-Romagna,2960.6,4461786,277.8,9.38367222860231,62.3,2089.0
Toscana,2277.3,3696949,769.1,33.7717033328942,208.0,1371.0
Umbria,454.3,871954.5,186.8,41.1206251375743,214.2,300.1
Marche,796.3,1516496.5,340.8,42.7974381514505,224.7,559.5
Lazio,3038.3,5764388,613.3,20.1856959483922,106.4,1586.3
Abruzzo,600.3,1297293,206.8,34.4422788605697,159.4,376.1
Molise,111.2,302153,100.1,89.9847122302158,331.2,56.1
Campania,2595.2,5726217,33.3,1.28236744759556,5.8,1368.9
Puglia,1871.8,3964416.5,674.6,36.0424724863768,170.2,946.8
Basilicata,197.2,555920.5,51.3,26.0319472616633,92.3,97.4
Calabria,767.2,1903065.5,309.4,40.3222106360792,162.6,367.5
Sicilia,2233.3,4891919,1305.8,58.4677383244526,266.9,860.3
Sardegna,737.7,1616939,165.1,22.3806425376169,102.1,540.8
